<?xml version="1.0" encoding="UTF-8"?>
<svg width="12px" height="26px" viewBox="0 0 12 26" version="1.1" xmlns="http://www.w3.org/2000/svg" xmlns:xlink="http://www.w3.org/1999/xlink">
    <title>facebook-icon</title>
    <g id="Symbols" stroke="none" stroke-width="1" fill="none" fill-rule="evenodd">
        <g id="layout/footer-Desk" transform="translate(-27.000000, -224.000000)" fill="#000000" fill-rule="nonzero">
            <g id="Group-11" transform="translate(27.000000, 224.000000)">
                <g id="facebook-icon" transform="translate(0.000000, 0.614367)">
                    <path d="M2.96875,8.01512287 L0,8.01512287 L0,12.0226843 L2.96875,12.0226843 L2.96875,24.0453686 L7.91666667,24.0453686 L7.91666667,12.0226843 L11.4791667,12.0226843 L11.875,8.01512287 L7.91666667,8.01512287 L7.91666667,6.31190926 C7.91666667,5.41020794 8.11458333,5.0094518 9.00520833,5.0094518 L11.875,5.0094518 L11.875,0 L8.11458333,0 C4.55208333,0 2.96875,1.60302457 2.96875,4.60869565 L2.96875,8.01512287 Z" id="00-footer-FB"></path>
                </g>
            </g>
        </g>
    </g>
</svg>